An Interface to the Oxford COVID-19 Government Response Tracker API • oxcgrt
…
For each of these endpoints, the data retrieval workflow is composed of two steps: first is the creation of the appropriate API URL query; and, second is the retrieval of the appropriate data as per query into a data.frame structure usable in R. This workflow is show in code below:

## Load oxcgrt package
library(oxcgrt)

## Step 1: Create the appropriate API URL query for time series data from 
## 1 December 2022 up to current day
query <- get_json_time(from = "2022-12-01")

## Step 2: Retrieve the data
get_data_time(query)

This results in the following:

#> # A tibble: 5,704 × 9
#>    date_value country_code country_name       confirmed deaths stringency_actual
#>    <date>     <chr>        <chr>                  <int>  <int>             <dbl>
#>  1 2022-12-01 ABW          Aruba                  43641    236             25.9 
#>  2 2022-12-01 AFG          Afghanistan           206073   7834              2.78
#>  3 2022-12-01 AGO          Angola                104676   1924             18.5 
#>  4 2022-12-01 ALB          Albania               333360   3594             11.1 
#>  5 2022-12-01 AND          Andorra                47219    157             11.1 
#>  6 2022-12-01 ARE          United Arab Emira…   1044468   2348             13.9 
#>  7 2022-12-01 ARG          Argentina            9727247 130025             25   
#>  8 2022-12-01 AUS          Australia           10742127  16203             11.1 
#>  9 2022-12-01 AUT          Austria              5566947  21216             35.2 
#> 10 2022-12-01 AZE          Azerbaijan            824385   9981             45.4 
#> # ℹ 5,694 more rows
#> # ℹ 3 more variables: stringency <dbl>, stringency_legacy <dbl>,
#> #   stringency_legacy_disp <dbl>

The oxcgrt functions are designed to work with pipe operators. The steps shown above can be replicated using pipe operators as follows:

get_json_time(from = "2022-12-01") |>     ## Step 1: Creat API URL query
  get_data_time()                         ## Step 2: Retrieve data

This results in the same output as the earlier workflow albeit sorted alphabetically by country code:

#> # A tibble: 5,704 × 9
#>    date_value country_code country_name       confirmed deaths stringency_actual
#>    <date>     <chr>        <chr>                  <int>  <int>             <dbl>
#>  1 2022-12-01 ABW          Aruba                  43641    236             25.9 
#>  2 2022-12-01 AFG          Afghanistan           206073   7834              2.78
#>  3 2022-12-01 AGO          Angola                104676   1924             18.5 
#>  4 2022-12-01 ALB          Albania               333360   3594             11.1 
#>  5 2022-12-01 AND          Andorra                47219    157             11.1 
#>  6 2022-12-01 ARE          United Arab Emira…   1044468   2348             13.9 
#>  7 2022-12-01 ARG          Argentina            9727247 130025             25   
#>  8 2022-12-01 AUS          Australia           10742127  16203             11.1 
#>  9 2022-12-01 AUT          Austria              5566947  21216             35.2 
#> 10 2022-12-01 AZE          Azerbaijan            824385   9981             45.4 
#> # ℹ 5,694 more rows
#> # ℹ 3 more variables: stringency <dbl>, stringency_legacy <dbl>,
#> #   stringency_legacy_disp <dbl>
…
For more detailed examples of how to calculate the various OxCGRT sub-indices and indices, read Calculate OxCGRT sub-indices and indices.

Datasets

The oxcgrt package comes with helpful datasets which serve as guides to facilitate in usage and interpretation of the OxCGRT data.

Codebook

The OxCGRT provides an authoritative codebook found here. The oxcgrt package has extracted the tables from this documentation into a single codebook that can serve as a handy and convenient reference for an R user when working with OxCGRT data in R. The OxCGRT codebook can be accessed as follows:

codebook

which outputs the codebook as a singular table in tbl format as shown below:

#> # A tibble: 47 × 6
#>    ID    Name                      Description Measurement Coding `Policy Group`
#>    <chr> <chr>                     <chr>       <chr>       <chr>  <chr>         
#>  1 C1    C1_School closing         "Record cl… Ordinal sc… 0 - n… Containment a…
#>  2 C1    C1_Flag                   ""          Binary fla… 0 - t… Containment a…
#>  3 C2    C2_Workplace closing      "Record cl… Ordinal sc… 0 - n… Containment a…
#>  4 C2    C2_Flag                   ""          Binary fla… 0 - t… Containment a…
#>  5 C3    C3_Cancel public events   "Record ca… Ordinal sc… 0 - n… Containment a…
#>  6 C3    C3_Flag                   ""          Binary fla… 0 - t… Containment a…
#>  7 C4    C4_Restrictions on gathe… "Record li… Ordinal sc… 0 - n… Containment a…
#>  8 C4    C4_Flag                   ""          Binary fla… 0 - t… Containment a…
#>  9 C5    C5_Close public transport "Record cl… Ordinal sc… 0 - n… Containment a…
#> 10 C5    C5_Flag                   ""          Binary fla… 0 - t… Containment a…
#> # ℹ 37 more rows
…
