Calculate OxCGRT sub-index score for a single indicator — calculate_subindex • oxcgrt
…
    Examples

calculate_subindex(indicator_code = indicatorData$indicator[1],
                   value = indicatorData$value[1],
                   flag_value = indicatorData$flag_value[1])
#> [1] 66.66667

x <- get_data(json = get_json_actions(ccode = "AFG",
                                      from = NULL,
                                      to = "2020-09-01"))
calculate_subindices(df = x$policyActions)
#> # A tibble: 23 × 10
#>    policy_type_code policy_type_display   policyvalue policyvalue_actual flagged
#>    <chr>            <chr>                       <int>              <int> <lgl>  
#>  1 C1               School closing                  2                  2 TRUE   
#>  2 C2               Workplace closing               2                  2 TRUE   
#>  3 C3               Cancel public events            0                  0 NA     
#>  4 C4               Restrictions on gath…           0                  0 NA     
#>  5 C5               Close public transpo…           0                  0 NA     
#>  6 C6               Stay at home require…           0                  0 NA     
#>  7 C7               Restrictions on inte…           0                  0 NA     
#>  8 C8               International travel…           1                  1 NA     
#>  9 E1               Income support                  0                  0 NA     
#> 10 E2               Debt/contract relief            0                  0 NA     
#> # ℹ 13 more rows
#> # ℹ 5 more variables: is_general <lgl>, notes <chr>,
#> #   flag_value_display_field <chr>, policy_value_display_field <chr>,
#> #   score <dbl>
…
